Joschka Schwarz - Diss
…
Organization affiliation:

gh_org_affil <- org_members |> 
  # Logins for users & orgs (via GHT)
  left_join(gh_ght_users, by = c(org_id  = "id")) |> 
  left_join(gh_ght_users, by = c(user_id = "id")) |> 
  
  # Domains for orgs (via API)
  left_join(gh_api_users, by = c(org_login = "login"))

#> # A tibble: 929,893 × 5
#>    ght_usr_id usr_login     ght_org_id org_login         org_domain            
#>         <int> <chr>              <int> <chr>             <chr>                 
#>  1          1 tosch              76303 Sage              sage.com              
#>  2          1 tosch             242944 ruote             ruote.rubyforge.org   
#>  3          2 jmettraux          28935 rightscale        blog.rightscale.com   
#>  4          2 jmettraux         242944 ruote             ruote.rubyforge.org   
#>  5          2 jmettraux         242945 tlug              tlug.jp               
#>  6          2 jmettraux         242951 hiroshimarb       hiroshimarb.github.com
#>  7          2 jmettraux        3070986 flon-io           flon.io               
#>  8          2 jmettraux       30939037 floraison         <NA>                  
#>  9          4 kennethkalmer       2192 collectiveidea    collectiveidea.com    
#> 10          4 kennethkalmer      33223 platform45        platform45.com        
#> 11          4 kennethkalmer     242944 ruote             ruote.rubyforge.org   
#> 12          4 kennethkalmer     258042 InternetSolutions <NA>                  
#> 13          4 kennethkalmer    7313333 ValuationUp       valuationup.com       
#> 14          4 kennethkalmer    7313335 zero-one-software zero-one.io           
#> 15          4 kennethkalmer   11080227 zadevchat         zadevchat.io          
#> 16          4 kennethkalmer   11415454 MyLightstone      <NA>                  
#> 17          4 kennethkalmer   62779848 imilingo          <NA>                  
#> 18          5 weppos             10634 fog               fog.io                
#> # ℹ 929,875 more rows
…
  compute()

join|> 
  nrow()

#> [1] 724961

join |> 
  filter(location == "Hamburg") |> 
  count(name, sort = T)

#> # A tibble: 43 × 2
#>   name        n
#>   <chr>   <int>
#> 1 Jan        10
#> 2 Alex        8
#> 3 Chris       8
#> 4 Patrick     6
#> 5 Nils        5
#> 6 Fabian      4
#> 7 Dennis      3
#> # ℹ 36 more rows
…
