Joschka Schwarz - CoreSignal Analysis
…
CBPB: SELECT
CBPB: WRANGLE
CBPB: CLEAN
CS: SELECT
CS: WRANGLE
CS: CLEAN

Crunchbase data contains 150,838 startups with a valid funding trajectory.

p_load(arrow, dplyr, tidyr)

funded_companies_prqt <- open_dataset("funded_companies_identifiers.parquet") 
funded_companies_prqt

#> # A tibble: 150,838 × 3
#>   company_id            domain linkedin_url                                     
#>        <int> <list<character>> <chr>                                            
#> 1          1               [1] <NA>                                             
#> 2          2               [1] https://www.linkedin.com/company/luna-pharmaceut…
#> 3          3               [1] http://www.linkedin.com/company/chainsync        
#> # ℹ 150,835 more rows

Multiple domains (Unnesting via Arrow not possible. Options: Spark & sparklyr.nested):

fc_unnested_tbl <- funded_companies_prqt |> collect() |> 
                      # 1. Allow multiple domains per company. No multiple linkedin handles.
                      unnest(domain) 
fc_unnested_tbl

#> # A tibble: 155,413 × 3
#>   company_id domain              linkedin_url                                   
#>        <int> <chr>               <chr>                                          
#> 1          1 zana.io             <NA>                                           
#> 2          2 premamawellness.com https://www.linkedin.com/company/luna-pharmace…
#> 3          3 chainsync.com       http://www.linkedin.com/company/chainsync      
#> # ℹ 155,410 more rows
…
library(stringr)
fc_unnested_tbl |> 
  
  # 1. At least 1 identifier: 4.518 observations are filtered out
  filter(if_any(c(domain, linkedin_url), ~!is.na(.))) |>
  
  # 2. Extract linkedin handle & clean domains
  mutate(linkedin_handle = linkedin_url |> str_extract("(?<=linkedin\\.com/company/).*?(?=(?:\\?|$|/))")) |>
  mutate(domain          = domain |> clean_domain()) |>

  # 3. Remove 532 duplicates
  distinct()

#> # A tibble: 150,363 × 3
#>   company_id domain              linkedin_handle          
#>        <int> <chr>               <chr>                    
#> 1          1 zana.io             <NA>                     
#> 2          2 premamawellness.com luna-pharmaceuticals-inc-
#> 3          3 chainsync.com       chainsync                
#> # ℹ 150,360 more rows
…
# Set misleading domains to NA
funded_companies_clnd <- fc_wrangled_tbl |> 
                              
  mutate(domain = if_else(
    domain %in% unwanted_domains_cb & !(company_id %in% wanted_ids_cb), 
    NA_character_, domain))

It appears that CoreSignal has been able to locate 45.026 companies within our gathered data.

# Selection & Wrangle has been done already
cs_companies_base_slct <- readRDS("cs_companies_base_slct.rds") 
cs_companies_base_slct

#> # A tibble: 45,362 × 4
#>      id name                                domain               linkedin_handle
#>   <int> <chr>                               <chr>                <chr>          
#> 1   305 Blueprint, a David's Bridal Company blueprintregistry.c… blueprint-regi…
#> 2   793 BookingLive                         bookinglive.com      bookinglive    
#> 3  2425 Brandvee                            momentum.ai          brandvee       
#> # ℹ 45,359 more rows

cs_companies_base_slct$id |> n_distinct()

#> [1] 45026

cs_companies_base_slct |> janitor::get_dupes(id)

#> # A tibble: 672 × 5
#>        id dupe_count name          domain           linkedin_handle
#>     <int>      <int> <chr>         <chr>            <chr>          
#> 1  596494          2 Vi            vi.co            vitrainer      
#> 2  596494          2 Vi            vi.co            vi             
#> 3 1324413          2 Patch Lending patchlending.com patch-of-land  
#> # ℹ 669 more rows
…
    # Leftjoins
    left_join(cs_companies_base_clnd |> select(id_cs, domain_cs),          by = c(domain          = "domain_cs"),          na_matches = "never") |> 
    left_join(cs_companies_base_clnd |> select(id_cs, linkedin_handle_cs), by = c(linkedin_handle = "linkedin_handle_cs"), na_matches = "never") |> 

    # Remove obs with no cs_id
    filter(!is.na(id_cs)) |>
    
    # Remove matches, that matched different domains, but same company (e.g. company_id: 83060, id_cs: 4507928) block.xyz & squareup.com
    select(company_id, id_cs) |> 
    distinct()
    
cb_cs_joined

#> # A tibble: 38,118 × 2
#>   company_id    id_cs
#>        <int>    <int>
#> 1          2  8345218
#> 2          5 28149599
#> 3          8  4469271
#> 4         11  5349023
#> 5         12  9364263
#> # ℹ 38,113 more rows
…
  # Check match and return bool
  title |> tolower() %in% data
}

CoreSignal data (n = 229.065.592)

# 1. Data
me_matched_members_prqt <- open_dataset("me_matched_members.parquet") 
me_matched_members_prqt |> 
  
  head() |> collect()

#> # A tibble: 6 × 7
#>       id member_id company_id company_name title date_from_parsed date_to_parsed
#>    <dbl>     <int>      <int> <chr>        <chr> <date>           <date>        
#> 1 6.07e8   2605953         NA arkansas se… Corp… 2015-02-01       NA            
#> 2 6.07e8   2605953         NA freelance m… Free… 2016-05-01       NA            
#> 3 6.30e8   2605953   10415396 101 magazine Cont… 2012-08-01       2014-05-01    
#> # ℹ 3 more rows

US Fortune 500 data

fortune500 <- readRDS("fortune_500_1955-2022.rds") |> 
                
                select(year, company) |> 
                mutate(company = company |> tolower())
fortune500

#> # A tibble: 34,000 × 2
#>    year company       
#>   <dbl> <chr>         
#> 1  1955 general motors
#> 2  1955 exxon mobil   
#> 3  1955 u.s. steel    
#> # ℹ 33,997 more rows
…
#> FileSystemDataset with 1 Parquet file
#> 335,291,384 rows x 8 columns
#> $ member_id                                 <int32> 162, 162, 162, 162, 162, 162…
#> $ id                                       <double> 1670386535, 1670386536, 1670…
#> $ skill_id                                  <int32> 148, 149, 172, 168, 472, 358…
#> $ created                   <timestamp[us, tz=UTC]> 2017-03-15 09:52:27, 2017-03…
#> $ last_updated              <timestamp[us, tz=UTC]> 2018-07-09 10:33:09, 2018-07…
#> $ deleted                                   <int32> 1, 1, 1, 1, 1, 1, 1, 1, 1, 1…
#> $ member_skill_list_created <timestamp[us, tz=UTC]> 2016-07-22 14:26:16, 2016-07…
#> $ member_skill_list_updated <timestamp[us, tz=UTC]> 2016-07-22 14:26:16, 2016-07…

skill_names_tbl <- readRDS("skill_names_tbl.rds")
skill_names_tbl

#> # A tibble: 2,423,690 × 2
#>   skill_id skill_name 
#>      <int> <fct>      
#> 1        1 mathematics
#> 2        2 swimming   
#> 3        3 analytics  
#> # ℹ 2,423,687 more rows
…
