Joschka Schwarz - Diss
…
  compute()

join|> 
  nrow()

#> [1] 724961

join |> 
  filter(location == "Hamburg") |> 
  count(name, sort = T)

#> # A tibble: 43 × 2
#>   name        n
#>   <chr>   <int>
#> 1 Jan        10
#> 2 Alex        8
#> 3 Chris       8
#> 4 Patrick     6
#> 5 Nils        5
#> 6 Fabian      4
#> 7 Dennis      3
#> # ℹ 36 more rows
…
