Joschka Schwarz - LHT Data Scientist
…
Data sources

What is Data Integrity and why does it matter?

Test series were performed to verify the effectiveness of the update

General
Specific
Code (1)
Code (2)

data_joined_cleaned_tbl <- read_rds("01_data/02_wrangled/data_joined_cleaned.rds")
data_joined_cleaned_tbl

#> # A tibble: 2,256 × 3
#>    software_version id                                                   failure
#>               <dbl> <chr>                                                  <dbl>
#>  1              1.1 76e899853d32693594596d20837f7fbd681864daff696baacd2…       0
#>  2              1.1 3714cb3b078089ac23bd92ab34c184ae6b69e7389c772e9b639…       0
#>  3              1.1 8601f3d8df88259dd4d0f84a7d0a8b287caf5e08f52b9ca98e4…       0
#>  4              1.2 4b457e08955d94130bf2f90ff905bc76fb1db3942688ff3e228…       0
#>  5              1.1 8dbd0947776dbab34f635daaebabc38309d09f45118da420b30…       0
#>  6              1.2 d7241ff8b59eefc600c21a9f16c12d5045a193f546c22181380…       0
#>  7              1.2 1a42a494855da0ad19f0535740ee4a8d08c6073bdb9aec157af…       0
#>  8              1.1 419c2d6bdc8497b2adc6f1f645689d6094d1f077543448d3af9…       0
#>  9              1.2 8739b5739e334cf30fb624fb970ad575a7475ffbd479ec2aca1…       0
#> 10              1.1 4c76f9572167ccb21c2e0bc93f6be7cf2cd367a116b84baec79…       0
#> # ℹ 2,246 more rows
…
